module github.com/anthdm/hollywood

go 1.20

require (
	github.com/grandcat/zeroconf v1.0.0
	github.com/planetscale/vtprotobuf v0.4.0
	github.com/prometheus/client_golang v1.15.0
	github.com/redis/go-redis/v9 v9.0.4
	github.com/stretchr/testify v1.8.1
	google.golang.org/grpc v1.53.0
	google.golang.org/protobuf v1.30.0
	storj.io/drpc v0.0.32
)

require (
	github.com/beorn7/perks v1.0.1 // indirect
	github.com/cenkalti/backoff v2.2.1+incompatible // indirect
	github.com/cespare/xxhash/v2 v2.2.0 // indirect
	github.com/dgryski/go-rendezvous v0.0.0-20200823014737-9f7001d12a5f // indirect
	github.com/klauspost/cpuid/v2 v2.0.9 // indirect
	github.com/kr/text v0.2.0 // indirect
	github.com/matttproud/golang_protobuf_extensions v1.0.4 // indirect
	github.com/miekg/dns v1.1.27 // indirect
	github.com/prometheus/client_model v0.3.0 // indirect
	github.com/prometheus/common v0.42.0 // indirect
	github.com/prometheus/procfs v0.9.0 // indirect
	github.com/rogpeppe/go-internal v1.9.0 // indirect
	golang.org/x/crypto v0.0.0-20191011191535-87dc89f01550 // indirect
)

require (
	github.com/davecgh/go-spew v1.1.1 // indirect
	github.com/golang/protobuf v1.5.3 // indirect
	github.com/google/uuid v1.5.0
	github.com/pmezard/go-difflib v1.0.0 // indirect
	github.com/zeebo/errs v1.2.2 // indirect
	github.com/zeebo/xxh3 v1.0.2
	golang.org/x/exp v0.0.0-20231214170342-aacd6d4b4611
	golang.org/x/net v0.7.0 // indirect
	golang.org/x/sys v0.6.0 // indirect
	golang.org/x/text v0.7.0 // indirect
	google.golang.org/genproto v0.0.0-20230110181048-76db0878b65f // indirect
	gopkg.in/yaml.v3 v3.0.1 // indirect
)
